RegionID,SizeRank,RegionName,RegionType,StateName,8/31/2018,9/30/2018,10/31/2018,11/30/2018,12/31/2018,1/31/2019,2/28/2019,3/31/2019,4/30/2019,5/31/2019,6/30/2019,7/31/2019,8/31/2019,9/30/2019,10/31/2019,11/30/2019,12/31/2019,1/31/2020,2/29/2020,3/31/2020,4/30/2020,5/31/2020,6/30/2020,7/31/2020,8/31/2020,9/30/2020,10/31/2020,11/30/2020,12/31/2020,1/31/2021,2/28/2021,3/31/2021,4/30/2021,5/31/2021,6/30/2021,7/31/2021,8/31/2021,9/30/2021,10/31/2021,11/30/2021,12/31/2021,1/31/2022,2/28/2022,3/31/2022,4/30/2022,5/31/2022,6/30/2022,7/31/2022,8/31/2022,9/30/2022,10/31/2022,11/30/2022,12/31/2022,1/31/2023,2/28/2023,3/31/2023,4/30/2023,5/31/2023,6/30/2023,7/31/2023,8/31/2023,9/30/2023,10/31/2023,11/30/2023,12/31/2023,1/31/2024
102001,0,United States,country,,227185,226907,227257,227960,228356,229514,230832,232674,234438,236661,238348,239180,239619,240319,241519,242552,244931,246509,248601,250478,252299,250164,248174,251137,259217,268780,275275,280321,282129,282434,284175,287969,294109,299272,303906,306456,308495,310807,313646,317994,319640,320717,323214,329525,338398,343462,345029,339864,334906,330178,328143,324707,320560,317833,320769,325671,330490,334589,337940,340499,341496,341012,340532,337658,335521,335937
394913,1,"New York, NY",msa,NY,398984,395995,396510,397835,398498,397689,399638,400414,403534,402829,405765,405015,405564,405099,409080,412141,419277,422645,424578,426282,430789,434937,432822,428388,431967,445566,463560,478877,486690,491022,496663,500885,506425,507376,512856,515416,519511,520657,523257,525427,528042,530815,535028,540321,545175,551903,559905,568091,569483,564126,557472,554482,549209,548667,548209,551170,555620,564294,576337,588066,598795,601796,602818,601668,603770,605902
753899,2,"Los Angeles, CA",msa,CA,675841,673096,672879,670802,665342,662452,659765,667609,669754,670581,673068,679839,682198,683668,681810,685275,692406,701065,712734,718006,711450,700424,696942,715385,741045,759937,770724,771896,775777,781118,793508,807599,819546,830780,840109,843291,844247,844281,849288,854102,865961,873458,885019,893672,914484,928816,932386,912416,891327,877139,875469,872373,867949,860384,859122,859926,862914,867391,876175,888627,907629,915993,922239,923655,923698,921146
394463,3,"Chicago, IL",msa,IL,231155,229947,230933,233654,232851,234307,236103,239618,240905,241422,239811,238050,235375,235272,237111,239077,242031,242808,245805,249737,253602,250607,243981,243803,251853,262735,269442,271951,272981,272429,274309,277064,282168,285600,285742,281887,277369,275605,276759,279186,280270,281134,283062,285441,289128,290823,293291,290854,286898,283317,281768,281547,280996,281458,283765,287324,289642,292618,296064,299508,302917,302960,302360,300261,299080,300890
394514,4,"Dallas, TX",msa,TX,258736,254425,251627,251415,251783,251484,251687,253169,256686,261748,264619,266055,265844,264119,263709,263601,265093,266750,267705,268200,271010,269568,271587,275752,284455,289791,293991,298070,299643,298820,303499,309855,318989,328305,337465,344517,345967,346762,348697,352555,355828,359599,365502,371976,386711,400269,409810,408880,403283,397310,391205,387161,378821,374167,371813,373773,376866,379671,384573,388411,389564,387367,384497,383740,382117,383149
